World life expectancy analysis
…
Mean for a few columns relating to deaths:

colMeans(lifeDF%>%select(Life.expectancy, Adult.Mortality, infant.deaths, under.five.deaths))

##   Life.expectancy   Adult.Mortality     infant.deaths under.five.deaths 
##          69.22493         164.79645          30.40745          42.17930

The avarage life expectancy is 96 years, about 164 adults per 1000 people die between ages 15 and 60 on avarage, about 30 infants and 42 kids under 5.

Average life expectancy in the years 2000-2015 for every country:

lifeDF%>%group_by(Country)%>%summarise(Life.expectancy=mean(Life.expectancy))->life
life

## # A tibble: 183 x 2
##    Country             Life.expectancy
##    <chr>                         <dbl>
##  1 Afghanistan                    58.2
##  2 Albania                        75.2
##  3 Algeria                        73.6
##  4 Angola                         49.0
##  5 Antigua and Barbuda            75.1
##  6 Argentina                      75.2
##  7 Armenia                        73.4
##  8 Australia                      81.8
##  9 Austria                        81.5
## 10 Azerbaijan                     70.7
## #  with 173 more rows
…
Top three countries with the highest avarage life expectancy are Iceland, Japan and Sweden, where the lowest are Sierra Leone, Central African Republic and Lesotho.

How much did life expectancy rise(or not) in the fifteen years for each country (of those which have the data):

raise<-function(country){
  min = (lifeDF%>%filter(Country==as.character(country) & Year==2000))$Life.expectancy
  max = (lifeDF%>%filter(Country==as.character(country) & Year==2015))$Life.expectancy
  max-min
}
lifeDF%>%group_by(Country)%>%mutate(Change = raise(Country))%>%summarise(Change = mean(Change))->change
change

## # A tibble: 183 x 2
##    Country             Change
##    <chr>                <dbl>
##  1 Afghanistan          10.2 
##  2 Albania               5.2 
##  3 Algeria               4.30
##  4 Angola                7.1 
##  5 Antigua and Barbuda   2.80
##  6 Argentina             2.20
##  7 Armenia               2.80
##  8 Australia             3.30
##  9 Austria               3.40
## 10 Azerbaijan            6.10
## #  with 173 more rows
…
